<?xml version="1.0" encoding="utf-8"?>
<!-- Generator: Adobe Illustrator 18.0.0, SVG Export Plug-In . SVG Version: 6.00 Build 0)  -->
<!DOCTYPE svg PUBLIC "-//W3C//DTD SVG 1.1//EN" "http://www.w3.org/Graphics/SVG/1.1/DTD/svg11.dtd">
<svg version="1.1" id="Layer_1" xmlns="http://www.w3.org/2000/svg" xmlns:xlink="http://www.w3.org/1999/xlink" x="0px" y="0px"
	 width="30px" height="30px" viewBox="0 0 30 30" enable-background="new 0 0 30 30" xml:space="preserve">
<g>
	<path fill="#444B52" d="M22.8,20.1l-1.5-1.6l0.3-2.2c0.1-0.4-0.2-0.7-0.6-0.8l-2.1-0.4l-1-1.9c-0.2-0.3-0.6-0.5-0.9-0.3l-2,1l-2-1
		c-0.3-0.2-0.7,0-0.9,0.3l-1,1.9L9,15.6c-0.4,0.1-0.6,0.4-0.6,0.8l0.3,2.2l-1.5,1.6c-0.3,0.3-0.3,0.7,0,1l1.5,1.6l-0.3,2.2
		c-0.1,0.4,0.2,0.7,0.6,0.8l2.1,0.4l1,1.9c0.2,0.3,0.6,0.5,0.9,0.3l2-1l2,1c0.1,0,0.2,0.1,0.3,0.1c0.3,0,0.5-0.1,0.6-0.4l1-1.9
		l2.1-0.4c0.4-0.1,0.6-0.4,0.6-0.8l-0.3-2.2l1.5-1.6C23.1,20.8,23.1,20.3,22.8,20.1z M20.1,21.9c-0.2,0.2-0.2,0.4-0.2,0.6l0.3,1.8
		l-1.8,0.3c-0.2,0-0.4,0.2-0.5,0.4L17,26.6l-1.7-0.8c-0.1,0-0.2-0.1-0.3-0.1c-0.1,0-0.2,0-0.3,0.1L13,26.6L12.2,25
		c-0.1-0.2-0.3-0.3-0.5-0.4l-1.8-0.3l0.3-1.8c0-0.2,0-0.4-0.2-0.6l-1.3-1.3l1.3-1.3c0.2-0.2,0.2-0.4,0.2-0.6l-0.3-1.8l1.8-0.3
		c0.2,0,0.4-0.2,0.5-0.4l0.9-1.6l1.7,0.8c0.2,0.1,0.4,0.1,0.6,0l1.7-0.8l0.9,1.6c0.1,0.2,0.3,0.3,0.5,0.4l1.8,0.3l-0.3,1.8
		c0,0.2,0,0.4,0.2,0.6l1.3,1.3L20.1,21.9z"/>
	<path fill="#444B52" d="M12.7,9.9c0.1,0.1,0.3,0.2,0.5,0.2h3.5c0.2,0,0.4-0.1,0.5-0.2l2.8-3.1c0.1-0.1,0.2-0.3,0.2-0.5V2.5
		c0-0.4-0.3-0.7-0.7-0.7h-9.1c-0.4,0-0.7,0.3-0.7,0.7v3.8c0,0.2,0.1,0.3,0.2,0.5L12.7,9.9z M18.8,6l-2.4,2.7h-0.7V3.2h3.2V6z
		 M11.1,3.2h3.2v5.5h-0.7L11.1,6V3.2z"/>
	<path fill="#444B52" d="M16.7,10.8h-3.5c-0.4,0-0.7,0.3-0.7,0.7c0,0.4,0.3,0.7,0.7,0.7h3.5c0.4,0,0.7-0.3,0.7-0.7
		C17.4,11.1,17.1,10.8,16.7,10.8z"/>
	<path fill="#444B52" d="M15,18.1c-1.3,0-2.4,1.1-2.4,2.4S13.7,23,15,23c1.3,0,2.4-1.1,2.4-2.4S16.3,18.1,15,18.1z M15,21.6
		c-0.6,0-1-0.5-1-1c0-0.6,0.5-1,1-1c0.6,0,1,0.5,1,1C16,21.1,15.6,21.6,15,21.6z"/>
</g>
</svg>
