<?xml version="1.0" encoding="utf-8"?>
<!-- Generator: Adobe Illustrator 18.0.0, SVG Export Plug-In . SVG Version: 6.00 Build 0)  -->
<!DOCTYPE svg PUBLIC "-//W3C//DTD SVG 1.1//EN" "http://www.w3.org/Graphics/SVG/1.1/DTD/svg11.dtd">
<svg version="1.1" id="Layer_1" xmlns="http://www.w3.org/2000/svg" xmlns:xlink="http://www.w3.org/1999/xlink" x="0px" y="0px"
	 width="30px" height="30px" viewBox="0 0 30 30" enable-background="new 0 0 30 30" xml:space="preserve">
<g>
	<path fill="#444B52" d="M24.6,11.7h-3.8l-0.9-1.5l0.9-1.5h3.8c0,0,0,0,0,0c0.4,0,0.7-0.3,0.7-0.7c0-0.2-0.1-0.3-0.1-0.4
		c-1-2-3.1-3.3-5.3-3.3c-3.3,0-5.9,2.7-5.9,5.9c0,0.6,0.1,1.2,0.3,1.8l-8.7,8.7c-0.5,0.5-0.8,1.2-0.8,1.9c0,0.7,0.3,1.4,0.8,1.9
		C6,25,6.7,25.3,7.4,25.3c0.7,0,1.4-0.3,1.9-0.8l8.7-8.7c0.6,0.2,1.2,0.3,1.8,0.3c2.3,0,4.4-1.3,5.4-3.4c0.1-0.2,0.1-0.5,0-0.7
		C25.1,11.8,24.8,11.7,24.6,11.7z M19.9,14.7c-0.6,0-1.2-0.1-1.7-0.3c-0.3-0.1-0.6,0-0.8,0.2l-9,9C7.9,24,7,24,6.5,23.5
		c-0.3-0.3-0.4-0.6-0.4-1s0.1-0.7,0.4-0.9l9-9c0.2-0.2,0.3-0.5,0.2-0.8c-0.2-0.5-0.3-1.1-0.3-1.7c0-2.5,2-4.5,4.5-4.5
		c1.3,0,2.6,0.6,3.5,1.6h-3c-0.3,0-0.5,0.1-0.6,0.3l-1.3,2.2c-0.1,0.2-0.1,0.5,0,0.7l1.3,2.2c0.1,0.2,0.4,0.4,0.6,0.4h3
		C22.5,14.1,21.2,14.7,19.9,14.7z"/>
	<path fill="#444B52" d="M22.6,17.9c-0.4,0-0.7,0.3-0.7,0.7v7.2h-9.3c-0.4,0-0.7,0.3-0.7,0.7c0,0.4,0.3,0.7,0.7,0.7h10
		c0.4,0,0.7-0.3,0.7-0.7v-7.9C23.3,18.3,23,17.9,22.6,17.9z"/>
	<path fill="#444B52" d="M5.6,16.6c0.4,0,0.7-0.3,0.7-0.7V9.7h4.9c0.4,0,0.7-0.3,0.7-0.7V4.1h2.9c0.4,0,0.7-0.3,0.7-0.7
		c0-0.4-0.3-0.7-0.7-0.7h-3.6c-0.2,0-0.4,0.1-0.5,0.2L5.1,8.5C5,8.6,5,8.7,4.9,8.8C4.9,8.9,4.9,9,4.9,9v6.9
		C4.9,16.3,5.2,16.6,5.6,16.6z M7.3,8.3l3.2-3.2v3.2H7.3z"/>
	<path fill="#444B52" d="M19.6,21.3c0.4,0,0.7-0.3,0.7-0.7s-0.3-0.7-0.7-0.7h-1.1c-0.4,0-0.7,0.3-0.7,0.7s0.3,0.7,0.7,0.7H19.6z"/>
	<path fill="#444B52" d="M15.5,23.1c0,0.4,0.3,0.7,0.7,0.7h3.4c0.4,0,0.7-0.3,0.7-0.7s-0.3-0.7-0.7-0.7h-3.4
		C15.8,22.4,15.5,22.8,15.5,23.1z"/>
</g>
</svg>
