<?xml version="1.0" encoding="utf-8"?>
<!-- Generator: Adobe Illustrator 18.0.0, SVG Export Plug-In . SVG Version: 6.00 Build 0)  -->
<!DOCTYPE svg PUBLIC "-//W3C//DTD SVG 1.1//EN" "http://www.w3.org/Graphics/SVG/1.1/DTD/svg11.dtd">
<svg version="1.1" id="Layer_1" xmlns="http://www.w3.org/2000/svg" xmlns:xlink="http://www.w3.org/1999/xlink" x="0px" y="0px"
	 width="30px" height="30px" viewBox="0 0 30 30" enable-background="new 0 0 30 30" xml:space="preserve">
<g>
	<path fill="#444B52" d="M25.5,7.3h-2.1V5.2c0-0.4-0.3-0.7-0.7-0.7h-3.5c-2.6,0-4.1,1.9-4.6,3.5c-0.9-0.4-2.4-0.7-4.5-0.7H4.5
		C4.1,7.3,3.8,7.6,3.8,8v15.4c0,0.4,0.3,0.7,0.7,0.7h7c1.7,0,2.6,0.5,2.8,0.8c0,0,0,0,0,0c0,0.4,0.3,0.7,0.7,0.7s0.7-0.3,0.7-0.7
		c0,0,0,0,0,0c0.2-0.2,1.1-0.8,2.8-0.8h7c0.4,0,0.7-0.3,0.7-0.7V8C26.2,7.6,25.9,7.3,25.5,7.3z M19.2,5.9H22v14.7h-2.8
		c-1.3,0-2.5,0.5-3.5,1.3V9.4c0,0,0,0,0,0s0,0,0,0C15.7,8.6,16.5,5.9,19.2,5.9z M11.5,22.7H5.2v-14h4.9c3,0,4,0.5,4.2,0.7v13.8
		C13.6,22.9,12.6,22.7,11.5,22.7z M24.8,22.7h-6.3c-0.6,0-1.2,0.1-1.8,0.2c0.7-0.6,1.6-0.9,2.5-0.9h3.5c0.4,0,0.7-0.3,0.7-0.7V8.7
		h1.4V22.7z"/>
	<path fill="#444B52" d="M11.5,10.4H7c-0.4,0-0.7,0.3-0.7,0.7c0,0.4,0.3,0.7,0.7,0.7h4.4c0.4,0,0.7-0.3,0.7-0.7
		C12.2,10.7,11.9,10.4,11.5,10.4z"/>
	<path fill="#444B52" d="M10.1,13.1H7c-0.4,0-0.7,0.3-0.7,0.7s0.3,0.7,0.7,0.7h3c0.4,0,0.7-0.3,0.7-0.7S10.5,13.1,10.1,13.1z"/>
</g>
</svg>
