<?xml version="1.0" encoding="utf-8"?>
<!-- Generator: Adobe Illustrator 18.0.0, SVG Export Plug-In . SVG Version: 6.00 Build 0)  -->
<!DOCTYPE svg PUBLIC "-//W3C//DTD SVG 1.1//EN" "http://www.w3.org/Graphics/SVG/1.1/DTD/svg11.dtd">
<svg version="1.1" id="Layer_1" xmlns="http://www.w3.org/2000/svg" xmlns:xlink="http://www.w3.org/1999/xlink" x="0px" y="0px"
	 width="30px" height="30px" viewBox="0 0 30 30" enable-background="new 0 0 30 30" xml:space="preserve">
<g>
	<path fill="#444B52" d="M9.9,15c0,0.4,0.3,0.7,0.7,0.7h1l0.6,1.7c0.1,0.3,0.4,0.5,0.7,0.5c0,0,0,0,0,0c0.3,0,0.6-0.2,0.7-0.5
		l0.7-2.3l0.7,2.3c0.1,0.3,0.4,0.5,0.7,0.5c0,0,0,0,0,0c0.3,0,0.6-0.2,0.7-0.5l0.6-1.7h1c0.4,0,0.7-0.3,0.7-0.7
		c0-0.4-0.3-0.7-0.7-0.7h-0.5l0.4-1.2c0.1-0.4-0.1-0.8-0.4-0.9c-0.4-0.1-0.8,0.1-0.9,0.4L15.7,15L15,12.6c-0.1-0.3-0.4-0.5-0.7-0.5
		s-0.6,0.2-0.7,0.5l-0.7,2.3l-0.8-2.3c-0.1-0.4-0.5-0.6-0.9-0.4c-0.4,0.1-0.6,0.5-0.4,0.9l0.4,1.2h-0.5C10.3,14.3,9.9,14.6,9.9,15z"
		/>
	<path fill="#444B52" d="M23.4,16.5l2.1,3.6l2.1-3.6h-1.4v-6c0-1.9-1.6-3.5-3.5-3.5H3.1c-0.4,0-0.7,0.3-0.7,0.7v14.7
		c0,0.4,0.3,0.7,0.7,0.7h20.5c0.4,0,0.7-0.3,0.7-0.7s-0.3-0.7-0.7-0.7H3.8V8.3h18.9c1.2,0,2.1,1,2.1,2.1v6H23.4z"/>
</g>
</svg>
