<?xml version="1.0" encoding="utf-8"?>
<!-- Generator: Adobe Illustrator 18.0.0, SVG Export Plug-In . SVG Version: 6.00 Build 0)  -->
<!DOCTYPE svg PUBLIC "-//W3C//DTD SVG 1.1//EN" "http://www.w3.org/Graphics/SVG/1.1/DTD/svg11.dtd">
<svg version="1.1" id="Layer_1" xmlns="http://www.w3.org/2000/svg" xmlns:xlink="http://www.w3.org/1999/xlink" x="0px" y="0px"
	 width="30px" height="30px" viewBox="0 0 30 30" enable-background="new 0 0 30 30" xml:space="preserve">
<g>
	<path fill="#444B52" d="M11.8,4.3C11.8,4.2,11.8,4.3,11.8,4.3c-0.1-0.1-0.2-0.1-0.3-0.1c0,0,0,0,0,0c-0.1,0-0.2,0-0.3,0.1
		c0,0,0,0,0,0c0,0,0,0,0,0c-0.1,0-0.1,0.1-0.2,0.2c0,0,0,0-0.1,0.1c0,0.1-0.1,0.2-0.1,0.3v7.1v8.3c-2.9,0.1-5.6,1.1-5.6,2.8
		c0,1.8,3.2,2.8,6.3,2.8s6.3-1,6.3-2.8c0-1.7-2.7-2.6-5.6-2.8v-7.9L18,9c0.2-0.1,0.3-0.4,0.3-0.6c0-0.3-0.1-0.5-0.3-0.6L11.8,4.3z
		 M6.6,23.1c0-0.4,1.5-1.2,4.2-1.4v2.7C8.1,24.3,6.6,23.4,6.6,23.1z M16.4,23.1c0,0.4-1.5,1.2-4.2,1.4v-2.7
		C14.9,21.8,16.4,22.7,16.4,23.1z M12.2,10.7V6.1l4,2.3L12.2,10.7z"/>
	<path fill="#444B52" d="M22,16.9c-1.5,0-2.8,1.3-2.8,2.8s1.3,2.8,2.8,2.8c1.5,0,2.8-1.3,2.8-2.8S23.5,16.9,22,16.9z M22,21.1
		c-0.8,0-1.4-0.6-1.4-1.4s0.6-1.4,1.4-1.4c0.8,0,1.4,0.6,1.4,1.4S22.8,21.1,22,21.1z"/>
</g>
</svg>
