{"total":18,"rows":[
	{"itemid":"CATEGORY-00","categoryid":"SAVE-S-01","unitDate":10.00,"status":"Y","benefit":1,"authority":"관리자", "cate-desc":"저축 설명입니다.", "date":"2015/10/12"},
	{"itemid":"CATEGORY-01","categoryid":"LOAN-L-01","unitDate":12.00,"status":"N","benefit":2,"authority":"사용자", "cate-desc":"대출 설명입니다.", "date":"2015/10/12"},
	{"itemid":"CATEGORY-02","categoryid":"INSURANCE-I-01","unitDate":12.00,"status":"Y","benefit":3.5,"authority":"사용자", "cate-desc":"보험 설명입니다.", "date":"2015/10/12"},
	{"itemid":"CATEGORY-03","categoryid":"CARD-C-02","unitDate":12.00,"status":"N","benefit":7,"authority":"사용자", "cate-desc":"카드 설명입니다.", "date":"2015/10/12"},
	{"itemid":"CATEGORY-04","categoryid":"P2P-P-01","unitDate":12.00,"status":"Y","benefit":11,"authority":"관리자", "cate-desc":"p2p 설명입니다.", "date":"2015/10/12"},
	{"itemid":"CATEGORY-05","categoryid":"CHANGE-C-02","unitDate":12.00,"status":"Y","benefit":20,"authority":"관리자", "cate-desc":"환율 설명입니다.", "date":"2015/10/12"},
	{"itemid":"CATEGORY-06","categoryid":"SAVE-S-01","unitDate":10.00,"status":"Y","benefit":1,"authority":"관리자", "cate-desc":"저축 설명입니다.", "date":"2015/10/12"},
	{"itemid":"CATEGORY-07","categoryid":"LOAN-L-01","unitDate":12.00,"status":"N","benefit":2,"authority":"사용자", "cate-desc":"대출 설명입니다.", "date":"2015/10/12"},
	{"itemid":"CATEGORY-08","categoryid":"INSURANCE-I-01","unitDate":12.00,"status":"Y","benefit":3.5,"authority":"사용자", "cate-desc":"보험 설명입니다.", "date":"2015/10/12"},
	{"itemid":"CATEGORY-09","categoryid":"CARD-C-02","unitDate":12.00,"status":"N","benefit":7,"authority":"사용자", "cate-desc":"카드 설명입니다.", "date":"2015/10/12"}	
]}