<?xml version="1.0" encoding="utf-8"?>
<!-- Generator: Adobe Illustrator 18.0.0, SVG Export Plug-In . SVG Version: 6.00 Build 0)  -->
<!DOCTYPE svg PUBLIC "-//W3C//DTD SVG 1.1//EN" "http://www.w3.org/Graphics/SVG/1.1/DTD/svg11.dtd">
<svg version="1.1" id="Layer_1" xmlns="http://www.w3.org/2000/svg" xmlns:xlink="http://www.w3.org/1999/xlink" x="0px" y="0px"
	 width="30px" height="30px" viewBox="0 0 30 30" enable-background="new 0 0 30 30" xml:space="preserve">
<path fill="#444B52" d="M26.4,9.2c-0.1-0.2-0.3-0.3-0.6-0.3H9L7.9,4.5C7.8,4.1,7.6,3.9,7.2,3.9H4.1c-0.4,0-0.7,0.3-0.7,0.7
	c0,0.4,0.3,0.7,0.7,0.7h2.6l4,16c-0.9,0.3-1.6,1.2-1.6,2.3c0,1.3,1.1,2.4,2.4,2.4c1.3,0,2.4-1.1,2.4-2.4c0-0.4-0.1-0.7-0.2-1h5.8
	c-0.2,0.3-0.2,0.7-0.2,1c0,1.3,1.1,2.4,2.4,2.4c1.3,0,2.4-1.1,2.4-2.4c0-1.3-1.1-2.4-2.4-2.4h-9.6l-0.7-2.9h12.3
	c0.3,0,0.6-0.2,0.7-0.5l2.2-8C26.6,9.6,26.6,9.4,26.4,9.2z M11.6,24.7c-0.6,0-1-0.5-1-1s0.5-1,1-1c0.6,0,1,0.5,1,1
	S12.1,24.7,11.6,24.7z M22.8,23.6c0,0.6-0.5,1-1,1c-0.6,0-1-0.5-1-1s0.5-1,1-1C22.3,22.6,22.8,23.1,22.8,23.6z M23.2,16.9H11.1
	l-1.7-6.6H25L23.2,16.9z"/>
</svg>
