<?xml version="1.0" encoding="utf-8"?>
<!-- Generator: Adobe Illustrator 18.0.0, SVG Export Plug-In . SVG Version: 6.00 Build 0)  -->
<!DOCTYPE svg PUBLIC "-//W3C//DTD SVG 1.1//EN" "http://www.w3.org/Graphics/SVG/1.1/DTD/svg11.dtd">
<svg version="1.1" id="Layer_1" xmlns="http://www.w3.org/2000/svg" xmlns:xlink="http://www.w3.org/1999/xlink" x="0px" y="0px"
	 width="30px" height="30px" viewBox="0 0 30 30" enable-background="new 0 0 30 30" xml:space="preserve">
<g>
	<path fill="#444B52" d="M13,12.8h-2.4c-0.4,0-0.7,0.3-0.7,0.7v8c0,0.4,0.3,0.7,0.7,0.7s0.7-0.3,0.7-0.7v-3.2H13
		c1.5,0,2.7-1.2,2.7-2.7C15.8,14,14.6,12.8,13,12.8z M13,16.9h-1.7v-2.7H13c0.7,0,1.3,0.6,1.3,1.3C14.4,16.3,13.8,16.9,13,16.9z"/>
	<path fill="#444B52" d="M25.7,6.9V4.6c0-0.4-0.3-0.7-0.7-0.7H13.8c-0.4,0-0.7,0.3-0.7,0.7v2.9c0,0.4,0.3,0.7,0.7,0.7v0.8
		c-0.5-0.1-1.1-0.2-1.7-0.2c-4.7,0-8.5,3.9-8.5,8.6c0,4.7,3.9,8.5,8.6,8.5c0,0,0.1,0,0.1,0c2.3,0,4.4-0.9,6-2.6
		c0.2-0.2,0.3-0.3,0.4-0.5H25c0.4,0,0.7-0.3,0.7-0.7v-2.9c0-0.4-0.3-0.7-0.7-0.7v-1.5c0.4,0,0.7-0.3,0.7-0.7v-2.2
		c0.4,0,0.7-0.3,0.7-0.7v-2.9V7.6C26.4,7.2,26.1,6.9,25.7,6.9z M14.5,5.3h9.8v1.5h-9.8V5.3z M15.2,8.3H25v1.5h-9
		c-0.3-0.1-0.5-0.3-0.8-0.4V8.3z M25,12.8h-5.7c-0.4-0.6-0.8-1.1-1.3-1.5h7V12.8z M12.2,24.7l-0.1,0.7L12.2,24.7
		c-4,0-7.2-3.2-7.2-7.1c0-4,3.2-7.2,7.2-7.2c3.9,0,7.1,3.2,7.2,7.1c0,1.9-0.7,3.7-2.1,5.1C15.9,23.9,14.1,24.6,12.2,24.7z
		 M24.3,21.6h-4.6c0.3-0.5,0.5-1,0.7-1.5h4V21.6z M23.6,18.7h-2.9c0.1-0.4,0.1-0.8,0.1-1.3c0-0.1,0-0.2,0-0.3h2.9V18.7z M24.3,15.7
		h-3.7c-0.1-0.5-0.3-1.1-0.5-1.5h4.2V15.7z"/>
</g>
</svg>
