<?xml version="1.0" encoding="utf-8"?>
<!-- Generator: Adobe Illustrator 18.0.0, SVG Export Plug-In . SVG Version: 6.00 Build 0)  -->
<!DOCTYPE svg PUBLIC "-//W3C//DTD SVG 1.1//EN" "http://www.w3.org/Graphics/SVG/1.1/DTD/svg11.dtd">
<svg version="1.1" id="Layer_1" xmlns="http://www.w3.org/2000/svg" xmlns:xlink="http://www.w3.org/1999/xlink" x="0px" y="0px"
	 width="30px" height="30px" viewBox="0 0 30 30" enable-background="new 0 0 30 30" xml:space="preserve">
<g>
	<path fill="#444B52" d="M5.8,10.8h18.5c0.3,0,0.6-0.2,0.7-0.5c0.1-0.3,0-0.6-0.3-0.8l-9.2-6.4c-0.2-0.2-0.6-0.2-0.8,0L5.4,9.6
		C5.1,9.7,5,10.1,5.1,10.3C5.2,10.6,5.4,10.8,5.8,10.8z M15,4.6l7,4.8H8L15,4.6z"/>
	<path fill="#444B52" d="M4.7,13.6h1.1v9.1H5.4c-0.4,0-0.7,0.3-0.7,0.7c0,0.4,0.3,0.7,0.7,0.7h1.1h2.8h4.2h2.8h4.2h2.8h1.1
		c0.4,0,0.7-0.3,0.7-0.7c0-0.4-0.3-0.7-0.7-0.7h-0.4v-9.1h1.1c0.4,0,0.7-0.3,0.7-0.7s-0.3-0.7-0.7-0.7h-1.8h-2.8h-4.2h-2.8H9.4H6.6
		H4.7c-0.4,0-0.7,0.3-0.7,0.7S4.3,13.6,4.7,13.6z M10.1,22.7v-9.1h2.8v9.1H10.1z M17.1,22.7v-9.1h2.8v9.1H17.1z M22.7,13.6v9.1h-1.4
		v-9.1H22.7z M15.7,13.6v9.1h-1.4v-9.1H15.7z M8.7,13.6v9.1H7.3v-9.1H8.7z"/>
	<path fill="#444B52" d="M25.4,25.5H4.6c-0.4,0-0.7,0.3-0.7,0.7c0,0.4,0.3,0.7,0.7,0.7h20.8c0.4,0,0.7-0.3,0.7-0.7
		C26.1,25.9,25.8,25.5,25.4,25.5z"/>
</g>
</svg>
