<?xml version="1.0" encoding="utf-8"?>
<!-- Generator: Adobe Illustrator 18.0.0, SVG Export Plug-In . SVG Version: 6.00 Build 0)  -->
<!DOCTYPE svg PUBLIC "-//W3C//DTD SVG 1.1//EN" "http://www.w3.org/Graphics/SVG/1.1/DTD/svg11.dtd">
<svg version="1.1" id="Layer_1" xmlns="http://www.w3.org/2000/svg" xmlns:xlink="http://www.w3.org/1999/xlink" x="0px" y="0px"
	 width="30px" height="30px" viewBox="0 0 30 30" enable-background="new 0 0 30 30" xml:space="preserve">
<path fill="#444B52" d="M24.1,9.4h-3.5c0.4-0.6,0.7-1.3,0.7-2.1c0-1.9-1.6-3.5-3.5-3.5c-0.9,0-1.8,0.4-2.5,1
	c-0.1,0.1-0.2,0.3-0.3,0.4c-0.6-0.9-1.7-1.4-2.8-1.4c-1.9,0-3.5,1.6-3.5,3.5c0,0.8,0.3,1.5,0.7,2.1H5.9c-0.4,0-0.7,0.3-0.7,0.7v4.8
	c0,0.4,0.3,0.7,0.7,0.7h0.7v9.9c0,0.4,0.3,0.7,0.7,0.7h15.4c0.4,0,0.7-0.3,0.7-0.7v-9.9h0.7c0.4,0,0.7-0.3,0.7-0.7v-4.8
	C24.8,9.7,24.5,9.4,24.1,9.4z M15.7,7.3c0-0.6,0.2-1.1,0.6-1.5c0.4-0.4,0.9-0.6,1.5-0.6c1.2,0,2.1,0.9,2.1,2.1
	c0,1.2-0.9,2.1-2.1,2.1h-2.1V7.3L15.7,7.3z M10.1,7.3c0-1.2,0.9-2.1,2.1-2.1c1.2,0,2.1,0.9,2.1,2.1v2.1h-2.1
	C11,9.4,10.1,8.5,10.1,7.3z M6.6,10.8h5.6h2.1v3.4h-7H6.6V10.8z M8,15.6h6.3v9.2H8V15.6z M22,24.8h-6.3v-9.2H22V24.8z M23.4,14.2
	h-0.7h-7v-3.4h2.1h5.6V14.2z"/>
</svg>
