<?xml version="1.0" encoding="utf-8"?>
<!-- Generator: Adobe Illustrator 18.0.0, SVG Export Plug-In . SVG Version: 6.00 Build 0)  -->
<!DOCTYPE svg PUBLIC "-//W3C//DTD SVG 1.1//EN" "http://www.w3.org/Graphics/SVG/1.1/DTD/svg11.dtd">
<svg version="1.1" id="Layer_1" xmlns="http://www.w3.org/2000/svg" xmlns:xlink="http://www.w3.org/1999/xlink" x="0px" y="0px"
	 width="30px" height="30px" viewBox="0 0 30 30" enable-background="new 0 0 30 30" xml:space="preserve">
<g>
	<path fill="#444B52" d="M20,2.8c-4.8,0-8.6,2.5-8.6,5.6c0,1.4,0.8,2.7,2.2,3.7c0.3,0.2,0.7,0.2,1-0.2c0.2-0.3,0.2-0.8-0.2-1
		c-1-0.7-1.6-1.7-1.6-2.6c0-2.3,3.3-4.2,7.2-4.2c3.9,0,7.2,1.9,7.2,4.2c0,0.9-0.6,1.9-1.7,2.6c-0.2,0.1-0.3,0.3-0.3,0.6v10h-1
		c-0.4,0-0.7,0.3-0.7,0.7c0,0.4,0.3,0.7,0.7,0.7h1.7c0.4,0,0.7-0.3,0.7-0.7V11.9c1.3-1,2-2.3,2-3.6C28.5,5.2,24.8,2.8,20,2.8z"/>
	<path fill="#444B52" d="M22.2,14H5c-0.4,0-0.7,0.3-0.7,0.7c0,0.6,0.1,1.3,0.1,1.9c-1.7,0.3-3,1.7-3,3.5c0,2,1.6,3.6,3.6,3.6h3
		c0.5,0.5,1.1,0.9,1.7,1.2v1.9c0,0.4,0.3,0.7,0.7,0.7h6.4c0.4,0,0.7-0.3,0.7-0.7v-1.9c3.3-1.8,5.4-5.8,5.4-10.2
		C22.9,14.3,22.5,14,22.2,14z M2.9,20.1c0-1.1,0.8-2,1.9-2.1c0.4,1.6,1.1,3.1,2,4.3H5C3.8,22.3,2.9,21.3,2.9,20.1z M16.1,26.1h-5
		v-0.9h5V26.1z M16.7,23.8h-6.1c-2.8-1.5-4.6-4.7-4.8-8.4h15.7C21.2,19.1,19.4,22.4,16.7,23.8z"/>
	<path fill="#444B52" d="M6.3,10.4c0.2,1.4,1.1,2.4,1.7,2.7c0.1,0.1,0.2,0.1,0.4,0.1c0.2,0,0.5-0.1,0.6-0.3c0.2-0.3,0.1-0.8-0.2-1
		c-0.2-0.1-0.9-0.7-1-1.7C7.6,9.5,8,8.6,8.7,7.8c1.7-1.8,1-4.1,0-5.2c-0.3-0.3-0.7-0.3-1,0c-0.3,0.3-0.3,0.7,0,1
		c0.5,0.5,1.2,2,0,3.2C6.4,8.3,6.2,9.6,6.3,10.4z"/>
</g>
</svg>
