<?xml version="1.0" encoding="utf-8"?>
<!-- Generator: Adobe Illustrator 18.0.0, SVG Export Plug-In . SVG Version: 6.00 Build 0)  -->
<!DOCTYPE svg PUBLIC "-//W3C//DTD SVG 1.1//EN" "http://www.w3.org/Graphics/SVG/1.1/DTD/svg11.dtd">
<svg version="1.1" id="Layer_1" xmlns="http://www.w3.org/2000/svg" xmlns:xlink="http://www.w3.org/1999/xlink" x="0px" y="0px"
	 width="30px" height="30px" viewBox="0 0 30 30" enable-background="new 0 0 30 30" xml:space="preserve">
<g>
	<path fill="#444B52" d="M20.4,8.6h-0.9V4.3c0-1.8-1.5-3.3-3.3-3.3h-2.4c-1.8,0-3.3,1.5-3.3,3.3v4.4H9.6c-1.8,0-3.3,1.5-3.3,3.3
		v14.2c0,0.4,0.3,0.7,0.7,0.7h1.4v1.5c0,0.4,0.3,0.7,0.7,0.7s0.7-0.3,0.7-0.7v-1.5h10.5v1.5c0,0.4,0.3,0.7,0.7,0.7s0.7-0.3,0.7-0.7
		v-1.5H23c0.4,0,0.7-0.3,0.7-0.7V12C23.8,10.1,22.3,8.6,20.4,8.6z M11.8,4.3c0-1.1,0.9-1.9,1.9-1.9h2.4c1.1,0,1.9,0.9,1.9,1.9v4.4
		h-6.3V4.3z M22.3,25.4H7.7V12c0-1.1,0.9-1.9,1.9-1.9h1.6h7.7h1.6c1.1,0,1.9,0.9,1.9,1.9V25.4z"/>
	<path fill="#444B52" d="M15.3,11.4c-0.4,0-0.7,0.3-0.7,0.7v10.5c0,0.4,0.3,0.7,0.7,0.7c0.4,0,0.7-0.3,0.7-0.7V12.1
		C16,11.8,15.7,11.4,15.3,11.4z"/>
	<path fill="#444B52" d="M11.2,11.4c-0.4,0-0.7,0.3-0.7,0.7v10.5c0,0.4,0.3,0.7,0.7,0.7c0.4,0,0.7-0.3,0.7-0.7V12.1
		C11.8,11.8,11.5,11.4,11.2,11.4z"/>
	<path fill="#444B52" d="M19.5,11.4c-0.4,0-0.7,0.3-0.7,0.7v10.5c0,0.4,0.3,0.7,0.7,0.7s0.7-0.3,0.7-0.7V12.1
		C20.3,11.8,19.9,11.4,19.5,11.4z"/>
</g>
</svg>
