<?xml version="1.0" encoding="utf-8"?>
<!-- Generator: Adobe Illustrator 18.0.0, SVG Export Plug-In . SVG Version: 6.00 Build 0)  -->
<!DOCTYPE svg PUBLIC "-//W3C//DTD SVG 1.1//EN" "http://www.w3.org/Graphics/SVG/1.1/DTD/svg11.dtd">
<svg version="1.1" id="Layer_1" xmlns="http://www.w3.org/2000/svg" xmlns:xlink="http://www.w3.org/1999/xlink" x="0px" y="0px"
	 width="30px" height="30px" viewBox="0 0 30 30" enable-background="new 0 0 30 30" xml:space="preserve">
<path fill="#444B52" d="M24.8,11.2h-6.3V5.5c0-0.4-0.3-0.7-0.7-0.7h-5.6c-0.4,0-0.7,0.3-0.7,0.7v5.7H5.2c-0.4,0-0.7,0.3-0.7,0.7v6.3
	c0,0.4,0.3,0.7,0.7,0.7h6.3v5.7c0,0.4,0.3,0.7,0.7,0.7h5.6c0.4,0,0.7-0.3,0.7-0.7v-5.7h6.3c0.4,0,0.7-0.3,0.7-0.7v-6.3
	C25.5,11.5,25.2,11.2,24.8,11.2z M24.1,17.5h-6.3c-0.4,0-0.7,0.3-0.7,0.7v5.7h-4.2v-5.7c0-0.4-0.3-0.7-0.7-0.7H5.9v-4.9h6.3
	c0.4,0,0.7-0.3,0.7-0.7V6.2h4.2v5.7c0,0.4,0.3,0.7,0.7,0.7h6.3V17.5z"/>
</svg>
