<?xml version="1.0" encoding="utf-8"?>
<!-- Generator: Adobe Illustrator 18.0.0, SVG Export Plug-In . SVG Version: 6.00 Build 0)  -->
<!DOCTYPE svg PUBLIC "-//W3C//DTD SVG 1.1//EN" "http://www.w3.org/Graphics/SVG/1.1/DTD/svg11.dtd">
<svg version="1.1" id="Layer_1" xmlns="http://www.w3.org/2000/svg" xmlns:xlink="http://www.w3.org/1999/xlink" x="0px" y="0px"
	 width="30px" height="30px" viewBox="0 0 30 30" enable-background="new 0 0 30 30" xml:space="preserve">
<path fill="#444B52" d="M19.9,15.4h-0.7v-4.9c0-0.4-0.3-0.7-0.7-0.7h-0.7v-7c0-0.4-0.3-0.7-0.7-0.7c-2.4,0-4.9,2.7-4.9,5.2v2.5h-0.7
	c-0.4,0-0.7,0.3-0.7,0.7v4.9h-0.7c-0.4,0-0.7,0.3-0.7,0.7v11.2c0,0.4,0.3,0.7,0.7,0.7h9.8c0.4,0,0.7-0.3,0.7-0.7V16.1
	C20.6,15.7,20.3,15.4,19.9,15.4z M13.6,7.3c0-1.5,1.4-3.3,2.8-3.7v6.2h-2.8V7.3z M12.2,11.2h0.7h4.2h0.7v4.2h-5.6V11.2z M11.5,16.8
	h7h0.7v1.4h-8.4v-1.4H11.5z M10.8,26.5v-7h8.4v7H10.8z"/>
</svg>
