<?xml version="1.0" encoding="utf-8"?>
<!-- Generator: Adobe Illustrator 18.0.0, SVG Export Plug-In . SVG Version: 6.00 Build 0)  -->
<!DOCTYPE svg PUBLIC "-//W3C//DTD SVG 1.1//EN" "http://www.w3.org/Graphics/SVG/1.1/DTD/svg11.dtd">
<svg version="1.1" id="Layer_1" xmlns="http://www.w3.org/2000/svg" xmlns:xlink="http://www.w3.org/1999/xlink" x="0px" y="0px"
	 width="30px" height="30px" viewBox="0 0 30 30" enable-background="new 0 0 30 30" xml:space="preserve">
<g>
	<path fill="#444B52" d="M10.6,15c0,0.4,0.3,0.7,0.7,0.7h1l0.6,1.7c0.1,0.3,0.4,0.5,0.7,0.5c0,0,0,0,0,0c0.3,0,0.6-0.2,0.7-0.5
		l0.7-2.3l0.7,2.3c0.1,0.3,0.4,0.5,0.7,0.5c0.3,0,0.6-0.2,0.7-0.5l0.6-1.7h1c0.4,0,0.7-0.3,0.7-0.7c0-0.4-0.3-0.7-0.7-0.7h-0.5
		l0.4-1.2c0.1-0.4-0.1-0.8-0.4-0.9c-0.4-0.1-0.8,0.1-0.9,0.4L16.4,15l-0.8-2.4c-0.1-0.3-0.4-0.5-0.7-0.5c-0.3,0-0.6,0.2-0.7,0.5
		l-0.7,2.3l-0.8-2.3c-0.1-0.4-0.5-0.6-0.9-0.4c-0.4,0.1-0.6,0.5-0.4,0.9l0.4,1.2h-0.5C11,14.3,10.6,14.6,10.6,15z"/>
	<path fill="#444B52" d="M24.8,6.9H9.3V5.5L5.7,7.6l3.6,2.1V8.3h15.5c0.4,0,0.7,0.3,0.7,0.7v11.1c0,0.4,0.3,0.7,0.7,0.7
		s0.7-0.3,0.7-0.7V9C26.9,7.9,26,6.9,24.8,6.9z"/>
	<path fill="#444B52" d="M20.7,21.7H5.2c-0.4,0-0.7-0.3-0.7-0.7V9.9c0-0.4-0.3-0.7-0.7-0.7S3.1,9.5,3.1,9.9v11.1
		c0,1.2,0.9,2.1,2.1,2.1h15.5v1.4l3.6-2.1l-3.6-2.1V21.7z"/>
</g>
</svg>
