<?xml version="1.0" encoding="utf-8"?>
<!-- Generator: Adobe Illustrator 18.0.0, SVG Export Plug-In . SVG Version: 6.00 Build 0)  -->
<!DOCTYPE svg PUBLIC "-//W3C//DTD SVG 1.1//EN" "http://www.w3.org/Graphics/SVG/1.1/DTD/svg11.dtd">
<svg version="1.1" id="Layer_1" xmlns="http://www.w3.org/2000/svg" xmlns:xlink="http://www.w3.org/1999/xlink" x="0px" y="0px"
	 width="30px" height="30px" viewBox="0 0 30 30" enable-background="new 0 0 30 30" xml:space="preserve">
<g>
	<path fill="#444B52" d="M25.5,23h-0.5l0.4-1.2c0.1-0.4-0.1-0.8-0.4-0.9c-0.4-0.1-0.8,0.1-0.9,0.4l-0.8,2.4l-0.8-2.4
		c-0.1-0.3-0.4-0.5-0.7-0.5c-0.3,0-0.6,0.2-0.7,0.5l-0.7,2.3l-0.8-2.3c-0.1-0.4-0.5-0.6-0.9-0.4c-0.4,0.1-0.6,0.5-0.4,0.9l0.4,1.2
		h-0.5c-0.4,0-0.7,0.3-0.7,0.7c0,0.4,0.3,0.7,0.7,0.7h1l0.6,1.7c0.1,0.3,0.4,0.5,0.7,0.5c0,0,0,0,0,0c0.3,0,0.6-0.2,0.7-0.5l0.7-2.3
		l0.7,2.3c0.1,0.3,0.4,0.5,0.7,0.5c0.3,0,0.6-0.2,0.7-0.5l0.6-1.7h1c0.4,0,0.7-0.3,0.7-0.7C26.2,23.3,25.9,23,25.5,23z"/>
	<path fill="#444B52" d="M20.8,19.6c0.4-0.1,0.6-0.5,0.5-0.9c-1.2-3.9-3.2-6.6-5.6-7.7c1.1-0.8,1.8-2,1.8-3.4c0-2.3-1.9-4.2-4.2-4.2
		C10.9,3.4,9,5.3,9,7.6C9,9,9.7,10.2,10.7,11c-4,1.8-6.9,7.7-6.9,14.9c0,0.4,0.3,0.7,0.7,0.7c0.4,0,0.7-0.3,0.7-0.7
		c0-7.9,3.5-14.1,8-14.1c2.7,0,5.3,2.8,6.7,7.3C20.1,19.5,20.5,19.7,20.8,19.6z M10.4,7.6c0-1.6,1.3-2.8,2.8-2.8s2.8,1.3,2.8,2.8
		c0,1.6-1.3,2.8-2.8,2.8S10.4,9.2,10.4,7.6z"/>
</g>
</svg>
