<?xml version="1.0" encoding="utf-8"?>
<!-- Generator: Adobe Illustrator 18.0.0, SVG Export Plug-In . SVG Version: 6.00 Build 0)  -->
<!DOCTYPE svg PUBLIC "-//W3C//DTD SVG 1.1//EN" "http://www.w3.org/Graphics/SVG/1.1/DTD/svg11.dtd">
<svg version="1.1" id="Layer_1" xmlns="http://www.w3.org/2000/svg" xmlns:xlink="http://www.w3.org/1999/xlink" x="0px" y="0px"
	 width="30px" height="30px" viewBox="0 0 30 30" enable-background="new 0 0 30 30" xml:space="preserve">
<g>
	<circle fill="#444B52" cx="9.9" cy="12.2" r="0.9"/>
	<path fill="#444B52" d="M23.5,8.4c0-0.2,0.1-0.3,0.1-0.5c0-2.4-2-4.4-4.4-4.4c-1.6,0-3,0.9-3.8,2.2c-0.7,0-1.4,0.1-2.2,0.3
		c-0.9-1.2-2.3-1.9-3.7-1.9C9,4.1,8.7,4.4,8.7,4.8V8c-1.2,0.8-2.1,1.9-2.8,3H5.2C4,11,3,12,3,13.2v4.7c0,1.2,1,2.2,2.2,2.2h0.7
		c0.7,1.2,1.7,2.2,2.8,3v1.6c0,1,0.8,1.7,1.7,1.7h1.9c0.8,0,1.5-0.5,1.7-1.2c1.2,0.2,2.4,0.2,3.7,0c0.2,0.7,0.9,1.2,1.7,1.2h1.9
		c1,0,1.7-0.8,1.7-1.7v-1.6c2.6-1.9,4.1-4.6,4.1-7.6C27,12.8,25.7,10.2,23.5,8.4z M19.1,4.9c1.7,0,3,1.3,3,3c0,0.6-0.2,1.2-0.6,1.7
		c-0.4-0.3-0.7-0.5-1.1-0.7c0,0-0.1,0-0.1-0.1c-0.8-0.4-1.6-0.7-2.5-0.9c-0.1,0-0.2,0-0.4-0.1c-0.3-0.1-0.7-0.1-1-0.1
		c-0.1,0-0.2,0-0.2,0C16.2,6.2,17.5,4.9,19.1,4.9z M21.8,22.2c-0.2,0.1-0.3,0.3-0.3,0.6v2c0,0.2-0.2,0.3-0.3,0.3h-1.9
		c-0.2,0-0.3-0.2-0.3-0.3v-0.3c0-0.2-0.1-0.4-0.3-0.5c-0.2-0.1-0.4-0.2-0.6-0.1c-1.6,0.3-3.1,0.3-4.6,0c-0.2,0-0.4,0-0.6,0.1
		c-0.2,0.1-0.3,0.3-0.3,0.5v0.3c0,0.2-0.2,0.3-0.3,0.3h-1.9c-0.2,0-0.3-0.2-0.3-0.3v-2c0-0.2-0.1-0.5-0.3-0.6
		c-1.2-0.8-2.2-1.9-2.9-3.1c-0.1-0.2-0.4-0.4-0.6-0.4H5.2c-0.4,0-0.8-0.4-0.8-0.8v-4.7c0-0.4,0.4-0.8,0.8-0.8h1.1
		c0.3,0,0.5-0.1,0.6-0.4c0.7-1.2,1.6-2.3,2.9-3.1c0.2-0.1,0.3-0.3,0.3-0.6V5.6c0.9,0.2,1.7,0.8,2.1,1.6c0.2,0.3,0.5,0.4,0.8,0.3
		c0.6-0.2,1.2-0.2,1.8-0.3c0,0.2-0.1,0.4-0.1,0.7c-0.2,0-0.5,0.1-0.7,0.1c-0.4,0.1-0.6,0.4-0.6,0.8c0.1,0.4,0.4,0.6,0.8,0.6
		c0.4-0.1,0.8-0.1,1.2-0.1c0,0,0,0,0,0l0.1,0c0.1,0,0.1,0,0.2,0c0.3,0,0.6,0,0.9,0c0.1,0,0.2,0,0.3,0c0.2,0,0.4,0.1,0.5,0.1
		c0.1,0,0.2,0,0.3,0.1c0.1,0,0.3,0.1,0.4,0.1c0.1,0,0.3,0.1,0.4,0.1c0.1,0,0.2,0.1,0.2,0.1c0.8,0.3,1.6,0.8,2.3,1.4c0,0,0,0,0,0
		c0.3,0.3,0.6,0.6,0.9,1c0.1,0.2,0.3,0.3,0.6,0.3c0.1,0,0.3,0,0.4-0.1c0.3-0.2,0.4-0.7,0.1-1c-0.2-0.2-0.4-0.5-0.6-0.7
		c0.2-0.2,0.3-0.5,0.5-0.7c1.6,1.5,2.6,3.6,2.6,5.7C25.6,18.2,24.2,20.6,21.8,22.2z"/>
</g>
</svg>
