<?xml version="1.0" encoding="utf-8"?>
<!-- Generator: Adobe Illustrator 18.0.0, SVG Export Plug-In . SVG Version: 6.00 Build 0)  -->
<!DOCTYPE svg PUBLIC "-//W3C//DTD SVG 1.1//EN" "http://www.w3.org/Graphics/SVG/1.1/DTD/svg11.dtd">
<svg version="1.1" id="Layer_1" xmlns="http://www.w3.org/2000/svg" xmlns:xlink="http://www.w3.org/1999/xlink" x="0px" y="0px"
	 width="30px" height="30px" viewBox="0 0 30 30" enable-background="new 0 0 30 30" xml:space="preserve">
<g>
	<path fill="#444B52" d="M13.1,20.3c0.4,0,0.7-0.3,0.7-0.7v-3.8h2.1c1.7,0,3.1-1.4,3.1-3.1c0-1.7-1.4-3.1-3.1-3.1h-2.8
		c-0.4,0-0.7,0.3-0.7,0.7v9.3C12.4,20,12.7,20.3,13.1,20.3z M13.8,11.1h2.1c0.9,0,1.7,0.7,1.7,1.7c0,0.9-0.7,1.7-1.7,1.7h-2.1V11.1z
		"/>
	<path fill="#444B52" d="M24.4,4.9H5.6c-0.4,0-0.7,0.3-0.7,0.7v18.9c0,0.4,0.3,0.7,0.7,0.7h18.9c0.4,0,0.7-0.3,0.7-0.7V5.6
		C25.1,5.2,24.8,4.9,24.4,4.9z M23.7,23.7H6.3V6.3h17.5V23.7z"/>
</g>
</svg>
