<?xml version="1.0" encoding="utf-8"?>
<!-- Generator: Adobe Illustrator 18.0.0, SVG Export Plug-In . SVG Version: 6.00 Build 0)  -->
<!DOCTYPE svg PUBLIC "-//W3C//DTD SVG 1.1//EN" "http://www.w3.org/Graphics/SVG/1.1/DTD/svg11.dtd">
<svg version="1.1" id="Layer_1" xmlns="http://www.w3.org/2000/svg" xmlns:xlink="http://www.w3.org/1999/xlink" x="0px" y="0px"
	 width="30px" height="30px" viewBox="0 0 30 30" enable-background="new 0 0 30 30" xml:space="preserve">
<g>
	<path fill="#444B52" d="M26,13.8C26,13.8,26,13.7,26,13.8c0.7-1.1,0.8-2.3,0.3-3.4c-0.5-1.1-1.4-1.9-2.6-2.2
		c-0.9-0.2-1.6-0.9-1.8-1.8c0,0,0-0.1,0-0.1c-0.4-1.7-1.9-2.9-3.6-2.9c-0.7,0-1.4,0.2-2,0.6c-0.7,0.5-1.7,0.5-2.6,0
		c-0.6-0.4-1.3-0.6-2-0.6c-1.7,0-3.2,1.2-3.6,2.9C7.9,7.2,7.2,7.9,6.4,8.1c0,0-0.1,0-0.1,0c-1.2,0.3-2.1,1.1-2.6,2.2
		c-0.5,1.1-0.3,2.4,0.3,3.4c0.5,0.8,0.5,1.7,0,2.5c0,0,0,0.1,0,0.1c-0.6,1-0.7,2.3-0.3,3.4c0.5,1.1,1.4,1.9,2.6,2.2
		c0.9,0.2,1.6,0.9,1.8,1.8c0,0,0,0.1,0,0.1c0.4,1.7,1.9,2.9,3.6,2.9c0.7,0,1.4-0.2,2-0.6c0.7-0.5,1.7-0.5,2.6,0
		c0.6,0.4,1.3,0.6,2,0.6c1.7,0,3.2-1.2,3.6-2.9c0.2-0.9,0.9-1.6,1.8-1.8c0,0,0.1,0,0.1,0c1.2-0.3,2.1-1.1,2.6-2.2
		c0.5-1.1,0.4-2.4-0.3-3.4C25.5,15.5,25.5,14.5,26,13.8z M24.8,17.1c0.4,0.6,0.5,1.4,0.2,2.1c-0.3,0.7-0.9,1.2-1.6,1.4
		c0,0-0.1,0-0.1,0c-1.4,0.3-2.5,1.4-2.8,2.9c-0.3,1.5-2,2.3-3.5,1.4c-0.6-0.4-1.3-0.6-2-0.6c-0.7,0-1.4,0.2-2,0.6c0,0-0.1,0-0.1,0
		c-0.4,0.2-0.8,0.4-1.2,0.4c-1.1,0-2-0.7-2.2-1.8c0,0,0-0.1,0-0.1c-0.3-1.4-1.4-2.5-2.9-2.8c-0.7-0.2-1.3-0.7-1.6-1.4
		c-0.3-0.7-0.2-1.5,0.2-2.1c0,0,0-0.1,0-0.1c0.8-1.2,0.8-2.8,0-4.1c-0.4-0.6-0.5-1.4-0.2-2.1c0.3-0.7,0.9-1.2,1.6-1.4
		c0,0,0.1,0,0.1,0c1.4-0.3,2.5-1.4,2.8-2.9c0.3-1.5,2-2.3,3.5-1.4c1.2,0.8,2.8,0.7,4,0c0,0,0.1,0,0.1,0c0.4-0.2,0.8-0.4,1.2-0.4
		c1.1,0,2,0.7,2.2,1.8c0,0,0,0.1,0,0.1c0.3,1.4,1.4,2.5,2.9,2.8c0.7,0.2,1.3,0.7,1.6,1.4c0.3,0.7,0.2,1.5-0.2,2.1c0,0,0,0.1,0,0.1
		C24,14.2,24,15.8,24.8,17.1z"/>
	<path fill="#444B52" d="M19.2,10.8c-0.3-0.3-0.7-0.3-1,0l-7.3,7.3c-0.3,0.3-0.3,0.7,0,1c0.1,0.1,0.3,0.2,0.5,0.2
		c0.2,0,0.4-0.1,0.5-0.2l7.3-7.3C19.4,11.6,19.4,11.1,19.2,10.8z"/>
	<path fill="#444B52" d="M14,12c0-1.1-0.9-2-2-2c-1.1,0-2,0.9-2,2s0.9,2,2,2C13.1,14,14,13.1,14,12z M11.3,12c0-0.4,0.3-0.6,0.6-0.6
		c0.4,0,0.6,0.3,0.6,0.6c0,0.4-0.3,0.6-0.6,0.6C11.6,12.6,11.3,12.3,11.3,12z"/>
	<path fill="#444B52" d="M18,16c-1.1,0-2,0.9-2,2c0,1.1,0.9,2,2,2s2-0.9,2-2C20.1,16.9,19.2,16,18,16z M18,18.7
		c-0.4,0-0.6-0.3-0.6-0.6c0-0.4,0.3-0.6,0.6-0.6s0.6,0.3,0.6,0.6C18.7,18.4,18.4,18.7,18,18.7z"/>
</g>
</svg>
