<?xml version="1.0" encoding="utf-8"?>
<!-- Generator: Adobe Illustrator 18.0.0, SVG Export Plug-In . SVG Version: 6.00 Build 0)  -->
<!DOCTYPE svg PUBLIC "-//W3C//DTD SVG 1.1//EN" "http://www.w3.org/Graphics/SVG/1.1/DTD/svg11.dtd">
<svg version="1.1" id="Layer_1" xmlns="http://www.w3.org/2000/svg" xmlns:xlink="http://www.w3.org/1999/xlink" x="0px" y="0px"
	 width="30px" height="30px" viewBox="0 0 30 30" enable-background="new 0 0 30 30" xml:space="preserve">
<g>
	<path fill="#444B52" d="M26.1,13.4c-0.4-0.3-0.9-0.5-1.4-0.5c0,0,0,0-0.1,0h-4.9V5.7c0-0.4-0.3-0.7-0.7-0.7H5.9
		C5.5,5,5.2,5.3,5.2,5.7v16.5C5.2,23.8,6.4,25,8,25h13.1c0,0,0.1,0,0.1,0c1.5-0.1,2.6-1.4,2.6-2.9v-7c0-0.4,0.3-0.8,0.7-0.8
		c0.2,0,0.4,0,0.6,0.2c0.2,0.1,0.2,0.3,0.2,0.5c0,0.4,0.3,0.7,0.7,0.7c0.4,0,0.7-0.3,0.7-0.7C26.8,14.4,26.6,13.8,26.1,13.4z
		 M13.1,23.6h-1.3v-1.3h1.3V23.6z M14.5,23.6v-2c0-0.4-0.3-0.7-0.7-0.7h-2.7c-0.4,0-0.7,0.3-0.7,0.7v2H8c-0.8,0-1.4-0.6-1.4-1.4V6.4
		h11.8v15.9c0,0.5,0.1,1,0.4,1.4H14.5z M22.5,15.1v7c0,0.8-0.6,1.5-1.3,1.5c-0.4,0-0.8-0.1-1-0.4c-0.3-0.3-0.4-0.6-0.4-1v-8h2.9
		C22.6,14.5,22.5,14.8,22.5,15.1z"/>
	<path fill="#444B52" d="M11.2,7.6H8.5c-0.4,0-0.7,0.3-0.7,0.7V11c0,0.4,0.3,0.7,0.7,0.7h2.7c0.4,0,0.7-0.3,0.7-0.7V8.3
		C11.9,7.9,11.6,7.6,11.2,7.6z M10.5,10.3H9.2V9h1.3V10.3z"/>
	<path fill="#444B52" d="M16.5,7.6h-2.7c-0.4,0-0.7,0.3-0.7,0.7V11c0,0.4,0.3,0.7,0.7,0.7h2.7c0.4,0,0.7-0.3,0.7-0.7V8.3
		C17.2,7.9,16.9,7.6,16.5,7.6z M15.8,10.3h-1.3V9h1.3V10.3z"/>
	<path fill="#444B52" d="M11.2,12.9H8.5c-0.4,0-0.7,0.3-0.7,0.7v2.7c0,0.4,0.3,0.7,0.7,0.7h2.7c0.4,0,0.7-0.3,0.7-0.7v-2.7
		C11.9,13.2,11.6,12.9,11.2,12.9z M10.5,15.6H9.2v-1.3h1.3V15.6z"/>
	<path fill="#444B52" d="M16.5,12.9h-2.7c-0.4,0-0.7,0.3-0.7,0.7v2.7c0,0.4,0.3,0.7,0.7,0.7h2.7c0.4,0,0.7-0.3,0.7-0.7v-2.7
		C17.2,13.2,16.9,12.9,16.5,12.9z M15.8,15.6h-1.3v-1.3h1.3V15.6z"/>
</g>
</svg>
