<?xml version="1.0" encoding="utf-8"?>
<!-- Generator: Adobe Illustrator 18.0.0, SVG Export Plug-In . SVG Version: 6.00 Build 0)  -->
<!DOCTYPE svg PUBLIC "-//W3C//DTD SVG 1.1//EN" "http://www.w3.org/Graphics/SVG/1.1/DTD/svg11.dtd">
<svg version="1.1" id="Layer_1" xmlns="http://www.w3.org/2000/svg" xmlns:xlink="http://www.w3.org/1999/xlink" x="0px" y="0px"
	 width="30px" height="30px" viewBox="0 0 30 30" enable-background="new 0 0 30 30" xml:space="preserve">
<path fill="#444B52" d="M23.2,11.4c-1.2,0-2.1,0.5-2.7,1c-0.2-0.1-0.3-0.2-0.6-0.3c-0.1,0-0.2,0-0.3,0c-0.2,0-4.1,0-7,0
	c-0.1-2.4-0.6-4.3-2.3-6.1C8.9,4.5,6.2,4.4,5.6,4.4c0,0,0,0,0,0C5.3,4.4,5.1,4.6,5,4.9c-0.1,0.2-1.7,4.6-1.9,5.5
	c-0.2,0.8,0.1,1.6,0.8,2.1L4,12.6c0.3,0.2,0.7,0.3,1.1,0.3c0.7,0,1.4-0.4,1.7-1c0.1-0.2,0.2-0.3,0.2-0.5c0,0.3,0.1,0.8,0.1,1.4
	l0,3.4C7,17,6.7,18.2,6.3,19.3c-0.2,0.8-0.5,1.7-0.6,2.4c0,0.1,0,0.2,0,0.2c-0.9-0.5-1.7-1.1-2.5-1.7c-0.3-0.2-0.7-0.2-1,0.1
	c-0.2,0.3-0.2,0.7,0.1,1c3.3,2.7,7.6,4.2,11.9,4.2c4.8,0,9.4-1.8,12.9-5.1c0.3-0.3,0.3-0.7,0-1c-0.3-0.3-0.7-0.3-1,0
	c-0.7,0.6-1.4,1.2-2.2,1.7c0-0.1-0.1-0.2-0.1-0.2l-2-3.9c0.1-0.4,0.3-1.1,0.2-1.9c0.9,0.1,1.5,0.8,1.9,1.6c0.1,0.2,0.3,0.3,0.5,0.3
	c0.2,0,0.4-0.1,0.6-0.2c0.3-0.3,0.5-0.4,0.8-0.5c0.3,0,0.6,0.2,0.9,0.5c0.1,0.1,0.3,0.2,0.5,0.2c0.1,0,0.2,0,0.3,0
	c0.3-0.1,0.4-0.4,0.4-0.7C28.1,13.5,25.1,11.4,23.2,11.4z M14.1,24.2c-2.2,0-4.4-0.4-6.4-1.2c0.5-0.6,2.3-2.7,3-3.7
	c0.7,0.3,1.9,0.7,3.6,0.7c1.3,0,2.6-0.3,3.8-0.8c1.3,1.1,3.2,2.7,3.7,3.1C19.5,23.5,16.8,24.2,14.1,24.2z M22.1,20.7
	c-0.9-0.8-2.4-2-3.4-2.9c-0.2-0.2-0.5-0.2-0.7-0.1c-1.2,0.5-2.4,0.8-3.6,0.8c-2,0-3.4-0.8-3.4-0.8c-0.3-0.2-0.7-0.1-0.9,0.2
	c-0.8,1-2.1,2.5-2.8,3.4c0.1-0.5,0.3-1.1,0.5-1.6c0.4-1.3,0.7-2.4,0.8-3.4v-3.5c0-0.4,0-1.1-0.1-1.8C8.2,9.9,7.8,9.3,7.1,9.3
	c-0.9,0-1.1,0.8-1.3,1.2c-0.1,0.2-0.1,0.5-0.3,0.7c-0.1,0.3-0.5,0.3-0.8,0.2l-0.1-0.1c-0.2-0.1-0.3-0.4-0.2-0.6
	c0.2-0.6,1.2-3.4,1.7-4.9C6.9,5.9,8.5,6.1,9.3,7c1.4,1.4,1.9,3,1.9,5.8c0,0,0,0.1,0,0.1c0,0,0,0.1,0,0.1c0.1,0.3,0.4,0.5,0.7,0.5
	c0,0,0,0,0,0c2.1,0,6.7,0,7.6,0c0.3,0.1,0.3,0.1,0.5,0.3c0.2,0.2,0.4,0.5,0.5,0.8c0.3,1-0.1,2.1-0.1,2.1c-0.1,0.2-0.1,0.4,0,0.6
	L22.1,20.7z M25.9,14.9c-0.4,0-0.8,0.1-1.2,0.3c-0.5-0.7-1.4-1.6-2.9-1.6c-0.1,0-0.2,0-0.2,0c0-0.1-0.1-0.2-0.1-0.2
	c0.4-0.3,1-0.6,1.7-0.6c0.9,0,2.5,0.8,3.2,2.1C26.2,14.9,26,14.9,25.9,14.9z"/>
</svg>
