<?xml version="1.0" encoding="utf-8"?>
<!-- Generator: Adobe Illustrator 18.0.0, SVG Export Plug-In . SVG Version: 6.00 Build 0)  -->
<!DOCTYPE svg PUBLIC "-//W3C//DTD SVG 1.1//EN" "http://www.w3.org/Graphics/SVG/1.1/DTD/svg11.dtd">
<svg version="1.1" id="Layer_1" xmlns="http://www.w3.org/2000/svg" xmlns:xlink="http://www.w3.org/1999/xlink" x="0px" y="0px"
	 width="30px" height="30px" viewBox="0 0 30 30" enable-background="new 0 0 30 30" xml:space="preserve">
<g>
	<path fill="#444B52" d="M20,13.2l-2.9-0.6l-1.5-2.5c-0.3-0.4-1-0.4-1.2,0l-1.5,2.5L10,13.2c-0.2,0.1-0.4,0.2-0.5,0.5
		c-0.1,0.2,0,0.5,0.1,0.7l2,2.2l-0.3,2.9c0,0.2,0.1,0.5,0.3,0.6c0.2,0.1,0.5,0.2,0.7,0.1L15,19l2.7,1.2c0.1,0,0.2,0.1,0.3,0.1
		c0.1,0,0.3,0,0.4-0.1c0.2-0.1,0.3-0.4,0.3-0.6l-0.3-2.9l2-2.2c0.2-0.2,0.2-0.4,0.1-0.7C20.4,13.5,20.2,13.3,20,13.2z M17.1,15.9
		C17,16,16.9,16.2,17,16.4l0.2,2l-1.9-0.8c-0.1,0-0.2-0.1-0.3-0.1s-0.2,0-0.3,0.1l-1.9,0.8l0.2-2c0-0.2,0-0.4-0.2-0.5l-1.4-1.5
		l2-0.4c0.2,0,0.4-0.2,0.5-0.3l1-1.8l1,1.8c0.1,0.2,0.3,0.3,0.5,0.3l2,0.4L17.1,15.9z"/>
	<path fill="#444B52" d="M25,6.4H5c-1.7,0-3.1,1.4-3.1,3.1v10.9c0,1.7,1.4,3.1,3.1,3.1h20c1.7,0,3.1-1.4,3.1-3.1V9.5
		C28.1,7.8,26.7,6.4,25,6.4z M26.7,20.5c0,0.9-0.8,1.7-1.7,1.7H5c-0.9,0-1.7-0.8-1.7-1.7V9.5C3.3,8.6,4,7.8,5,7.8h20
		c0.9,0,1.7,0.8,1.7,1.7V20.5z"/>
</g>
</svg>
